<mxfile host="app.diagrams.net" modified="2022-11-18T10:47:35.118Z" agent="5.0 (Windows NT 10.0; Win64; x64) AppleWebKit/537.36 (KHTML, like Gecko) Chrome/107.0.0.0 Safari/537.36" etag="5v6ekw-Qs4VP3ev88rUU" version="20.5.3" type="gitlab">
  <diagram id="C5RBs43oDa-KdzZeNtuy" name="Page-1">
    <mxGraphModel dx="1673" dy="922" grid="1" gridSize="10" guides="1" tooltips="1" connect="1" arrows="1" fold="1" page="1" pageScale="1" pageWidth="827" pageHeight="1169" math="0" shadow="0">
      <root>
        <mxCell id="WIyWlLk6GJQsqaUBKTNV-0" />
        <mxCell id="WIyWlLk6GJQsqaUBKTNV-1" parent="WIyWlLk6GJQsqaUBKTNV-0" />
        <mxCell id="ap-6ULYue4MC9I8obSPz-4" style="edgeStyle=orthogonalEdgeStyle;rounded=0;orthogonalLoop=1;jettySize=auto;html=1;fontSize=10;" edge="1" parent="WIyWlLk6GJQsqaUBKTNV-1" source="WIyWlLk6GJQsqaUBKTNV-3" target="ap-6ULYue4MC9I8obSPz-6">
          <mxGeometry relative="1" as="geometry">
            <mxPoint x="310" y="100" as="targetPoint" />
          </mxGeometry>
        </mxCell>
        <mxCell id="ap-6ULYue4MC9I8obSPz-9" style="edgeStyle=orthogonalEdgeStyle;rounded=0;orthogonalLoop=1;jettySize=auto;html=1;fontSize=10;" edge="1" parent="WIyWlLk6GJQsqaUBKTNV-1" source="WIyWlLk6GJQsqaUBKTNV-3" target="ap-6ULYue4MC9I8obSPz-7">
          <mxGeometry relative="1" as="geometry" />
        </mxCell>
        <mxCell id="ap-6ULYue4MC9I8obSPz-10" style="edgeStyle=orthogonalEdgeStyle;rounded=0;orthogonalLoop=1;jettySize=auto;html=1;fontSize=10;" edge="1" parent="WIyWlLk6GJQsqaUBKTNV-1" source="WIyWlLk6GJQsqaUBKTNV-3" target="ap-6ULYue4MC9I8obSPz-8">
          <mxGeometry relative="1" as="geometry" />
        </mxCell>
        <mxCell id="WIyWlLk6GJQsqaUBKTNV-3" value="Gitlab.com - helm chart site definition&lt;br&gt;Variables: Customer, partner, version" style="rounded=1;whiteSpace=wrap;html=1;fontSize=12;glass=0;strokeWidth=1;shadow=0;" parent="WIyWlLk6GJQsqaUBKTNV-1" vertex="1">
          <mxGeometry x="40" y="50" width="130" height="70" as="geometry" />
        </mxCell>
        <mxCell id="ap-6ULYue4MC9I8obSPz-15" style="edgeStyle=orthogonalEdgeStyle;rounded=0;orthogonalLoop=1;jettySize=auto;html=1;fontSize=10;" edge="1" parent="WIyWlLk6GJQsqaUBKTNV-1" source="ap-6ULYue4MC9I8obSPz-6">
          <mxGeometry relative="1" as="geometry">
            <mxPoint x="420" y="130" as="targetPoint" />
          </mxGeometry>
        </mxCell>
        <mxCell id="ap-6ULYue4MC9I8obSPz-6" value="Version: RC" style="rounded=1;whiteSpace=wrap;html=1;fontSize=10;" vertex="1" parent="WIyWlLk6GJQsqaUBKTNV-1">
          <mxGeometry x="200" y="50" width="130" height="70" as="geometry" />
        </mxCell>
        <mxCell id="ap-6ULYue4MC9I8obSPz-16" style="edgeStyle=orthogonalEdgeStyle;rounded=0;orthogonalLoop=1;jettySize=auto;html=1;fontSize=10;" edge="1" parent="WIyWlLk6GJQsqaUBKTNV-1" source="ap-6ULYue4MC9I8obSPz-7" target="ap-6ULYue4MC9I8obSPz-11">
          <mxGeometry relative="1" as="geometry" />
        </mxCell>
        <mxCell id="ap-6ULYue4MC9I8obSPz-7" value="Version Latest" style="rounded=1;whiteSpace=wrap;html=1;fontSize=10;" vertex="1" parent="WIyWlLk6GJQsqaUBKTNV-1">
          <mxGeometry x="200" y="140" width="130" height="70" as="geometry" />
        </mxCell>
        <mxCell id="ap-6ULYue4MC9I8obSPz-17" style="edgeStyle=orthogonalEdgeStyle;rounded=0;orthogonalLoop=1;jettySize=auto;html=1;fontSize=10;" edge="1" parent="WIyWlLk6GJQsqaUBKTNV-1" source="ap-6ULYue4MC9I8obSPz-8">
          <mxGeometry relative="1" as="geometry">
            <mxPoint x="420" y="220" as="targetPoint" />
          </mxGeometry>
        </mxCell>
        <mxCell id="ap-6ULYue4MC9I8obSPz-8" value="Version: table" style="rounded=1;whiteSpace=wrap;html=1;fontSize=10;" vertex="1" parent="WIyWlLk6GJQsqaUBKTNV-1">
          <mxGeometry x="200" y="230" width="130" height="70" as="geometry" />
        </mxCell>
        <mxCell id="ap-6ULYue4MC9I8obSPz-39" style="edgeStyle=orthogonalEdgeStyle;rounded=0;orthogonalLoop=1;jettySize=auto;html=1;fontSize=10;entryX=0.5;entryY=0;entryDx=0;entryDy=0;" edge="1" parent="WIyWlLk6GJQsqaUBKTNV-1" source="ap-6ULYue4MC9I8obSPz-11" target="ap-6ULYue4MC9I8obSPz-18">
          <mxGeometry relative="1" as="geometry">
            <mxPoint x="550" y="300" as="targetPoint" />
            <Array as="points">
              <mxPoint x="430" y="360" />
            </Array>
          </mxGeometry>
        </mxCell>
        <mxCell id="ap-6ULYue4MC9I8obSPz-11" value="&lt;font style=&quot;font-size: 10px;&quot;&gt;ArgoCD (&lt;span style=&quot;color: rgba(0, 0, 0, 0.87); font-family: &amp;quot;Work Sans&amp;quot;, -apple-system, BlinkMacSystemFont, Helvetica, Arial, sans-serif; text-align: start; background-color: rgb(255, 255, 255);&quot;&gt;continuous delivery)&lt;/span&gt;&lt;br&gt;&lt;/font&gt;&lt;span style=&quot;color: rgba(0, 0, 0, 0); font-family: monospace; text-align: start;&quot;&gt;&lt;font size=&quot;3&quot;&gt;)&lt;/font&gt;&lt;br&gt;&lt;/span&gt;" style="rounded=1;whiteSpace=wrap;html=1;fontSize=10;" vertex="1" parent="WIyWlLk6GJQsqaUBKTNV-1">
          <mxGeometry x="360" y="135" width="130" height="80" as="geometry" />
        </mxCell>
        <mxCell id="ap-6ULYue4MC9I8obSPz-27" style="edgeStyle=orthogonalEdgeStyle;rounded=0;orthogonalLoop=1;jettySize=auto;html=1;fontSize=10;" edge="1" parent="WIyWlLk6GJQsqaUBKTNV-1" source="ap-6ULYue4MC9I8obSPz-18" target="ap-6ULYue4MC9I8obSPz-23">
          <mxGeometry relative="1" as="geometry" />
        </mxCell>
        <mxCell id="ap-6ULYue4MC9I8obSPz-32" style="edgeStyle=orthogonalEdgeStyle;rounded=0;orthogonalLoop=1;jettySize=auto;html=1;entryX=0;entryY=0.5;entryDx=0;entryDy=0;fontSize=10;" edge="1" parent="WIyWlLk6GJQsqaUBKTNV-1" source="ap-6ULYue4MC9I8obSPz-18" target="ap-6ULYue4MC9I8obSPz-24">
          <mxGeometry relative="1" as="geometry" />
        </mxCell>
        <mxCell id="ap-6ULYue4MC9I8obSPz-34" style="edgeStyle=orthogonalEdgeStyle;rounded=0;orthogonalLoop=1;jettySize=auto;html=1;fontSize=10;entryX=0.5;entryY=0;entryDx=0;entryDy=0;" edge="1" parent="WIyWlLk6GJQsqaUBKTNV-1" source="ap-6ULYue4MC9I8obSPz-18" target="ap-6ULYue4MC9I8obSPz-26">
          <mxGeometry relative="1" as="geometry">
            <mxPoint x="425" y="480" as="targetPoint" />
          </mxGeometry>
        </mxCell>
        <mxCell id="ap-6ULYue4MC9I8obSPz-18" value="Rancher (k8s)" style="rounded=1;whiteSpace=wrap;html=1;fontSize=10;" vertex="1" parent="WIyWlLk6GJQsqaUBKTNV-1">
          <mxGeometry x="360" y="360" width="130" height="75" as="geometry" />
        </mxCell>
        <mxCell id="ap-6ULYue4MC9I8obSPz-54" style="edgeStyle=orthogonalEdgeStyle;rounded=0;orthogonalLoop=1;jettySize=auto;html=1;entryX=0.5;entryY=0;entryDx=0;entryDy=0;fontSize=10;" edge="1" parent="WIyWlLk6GJQsqaUBKTNV-1" source="ap-6ULYue4MC9I8obSPz-21" target="ap-6ULYue4MC9I8obSPz-24">
          <mxGeometry relative="1" as="geometry" />
        </mxCell>
        <mxCell id="ap-6ULYue4MC9I8obSPz-21" value="FileBrowser" style="rounded=1;whiteSpace=wrap;html=1;fontSize=10;" vertex="1" parent="WIyWlLk6GJQsqaUBKTNV-1">
          <mxGeometry x="460" y="240" width="130" height="75" as="geometry" />
        </mxCell>
        <mxCell id="ap-6ULYue4MC9I8obSPz-22" value="PVC" style="rounded=1;whiteSpace=wrap;html=1;fontSize=10;" vertex="1" parent="WIyWlLk6GJQsqaUBKTNV-1">
          <mxGeometry x="600" y="240" width="130" height="75" as="geometry" />
        </mxCell>
        <mxCell id="ap-6ULYue4MC9I8obSPz-52" style="edgeStyle=orthogonalEdgeStyle;rounded=0;orthogonalLoop=1;jettySize=auto;html=1;entryX=0;entryY=0.5;entryDx=0;entryDy=0;fontSize=10;" edge="1" parent="WIyWlLk6GJQsqaUBKTNV-1" source="ap-6ULYue4MC9I8obSPz-23" target="ap-6ULYue4MC9I8obSPz-18">
          <mxGeometry relative="1" as="geometry" />
        </mxCell>
        <mxCell id="ap-6ULYue4MC9I8obSPz-23" value="&lt;code&gt;cert-manager&lt;/code&gt;" style="rounded=1;whiteSpace=wrap;html=1;fontSize=10;" vertex="1" parent="WIyWlLk6GJQsqaUBKTNV-1">
          <mxGeometry x="140" y="360" width="130" height="75" as="geometry" />
        </mxCell>
        <mxCell id="ap-6ULYue4MC9I8obSPz-40" style="edgeStyle=orthogonalEdgeStyle;rounded=0;orthogonalLoop=1;jettySize=auto;html=1;fontSize=10;" edge="1" parent="WIyWlLk6GJQsqaUBKTNV-1" source="ap-6ULYue4MC9I8obSPz-24" target="ap-6ULYue4MC9I8obSPz-22">
          <mxGeometry relative="1" as="geometry" />
        </mxCell>
        <mxCell id="ap-6ULYue4MC9I8obSPz-55" style="edgeStyle=orthogonalEdgeStyle;rounded=0;orthogonalLoop=1;jettySize=auto;html=1;entryX=0.5;entryY=1;entryDx=0;entryDy=0;fontSize=10;" edge="1" parent="WIyWlLk6GJQsqaUBKTNV-1" source="ap-6ULYue4MC9I8obSPz-24" target="ap-6ULYue4MC9I8obSPz-21">
          <mxGeometry relative="1" as="geometry" />
        </mxCell>
        <mxCell id="ap-6ULYue4MC9I8obSPz-24" value="DW10" style="rounded=1;whiteSpace=wrap;html=1;fontSize=10;" vertex="1" parent="WIyWlLk6GJQsqaUBKTNV-1">
          <mxGeometry x="560" y="360" width="130" height="75" as="geometry" />
        </mxCell>
        <mxCell id="ap-6ULYue4MC9I8obSPz-50" style="edgeStyle=orthogonalEdgeStyle;rounded=0;orthogonalLoop=1;jettySize=auto;html=1;entryX=0;entryY=0.5;entryDx=0;entryDy=0;fontSize=10;" edge="1" parent="WIyWlLk6GJQsqaUBKTNV-1" source="ap-6ULYue4MC9I8obSPz-26" target="ap-6ULYue4MC9I8obSPz-49">
          <mxGeometry relative="1" as="geometry" />
        </mxCell>
        <mxCell id="ap-6ULYue4MC9I8obSPz-92" style="edgeStyle=orthogonalEdgeStyle;rounded=0;orthogonalLoop=1;jettySize=auto;html=1;" edge="1" parent="WIyWlLk6GJQsqaUBKTNV-1" source="ap-6ULYue4MC9I8obSPz-26" target="ap-6ULYue4MC9I8obSPz-46">
          <mxGeometry relative="1" as="geometry" />
        </mxCell>
        <mxCell id="ap-6ULYue4MC9I8obSPz-26" value="Traefik" style="rounded=1;whiteSpace=wrap;html=1;fontSize=10;" vertex="1" parent="WIyWlLk6GJQsqaUBKTNV-1">
          <mxGeometry x="360" y="615" width="130" height="75" as="geometry" />
        </mxCell>
        <mxCell id="ap-6ULYue4MC9I8obSPz-31" value="&#xa;&lt;span style=&quot;color: rgb(0, 0, 0); font-family: Helvetica; font-size: 10px; font-style: normal; font-variant-ligatures: normal; font-variant-caps: normal; font-weight: 400; letter-spacing: normal; orphans: 2; text-align: center; text-indent: 0px; text-transform: none; widows: 2; word-spacing: 0px; -webkit-text-stroke-width: 0px; background-color: rgb(248, 249, 250); text-decoration-thickness: initial; text-decoration-style: initial; text-decoration-color: initial; float: none; display: inline !important;&quot;&gt;MSSQL&lt;/span&gt;&#xa;&#xa;" style="shape=cylinder3;whiteSpace=wrap;html=1;boundedLbl=1;backgroundOutline=1;size=15;fontSize=10;" vertex="1" parent="WIyWlLk6GJQsqaUBKTNV-1">
          <mxGeometry x="767" y="355" width="60" height="80" as="geometry" />
        </mxCell>
        <mxCell id="ap-6ULYue4MC9I8obSPz-38" value="" style="endArrow=classic;startArrow=classic;html=1;rounded=0;fontSize=10;" edge="1" parent="WIyWlLk6GJQsqaUBKTNV-1">
          <mxGeometry width="50" height="50" relative="1" as="geometry">
            <mxPoint x="750" y="1160" as="sourcePoint" />
            <mxPoint x="750" y="10" as="targetPoint" />
          </mxGeometry>
        </mxCell>
        <mxCell id="ap-6ULYue4MC9I8obSPz-46" value="Host: &lt;br&gt;https://pw.dynamicweb.cloud" style="rounded=1;whiteSpace=wrap;html=1;fontSize=10;" vertex="1" parent="WIyWlLk6GJQsqaUBKTNV-1">
          <mxGeometry x="140" y="615" width="150" height="75" as="geometry" />
        </mxCell>
        <mxCell id="ap-6ULYue4MC9I8obSPz-51" style="edgeStyle=orthogonalEdgeStyle;rounded=0;orthogonalLoop=1;jettySize=auto;html=1;fontSize=10;entryX=0.5;entryY=1;entryDx=0;entryDy=0;startArrow=none;" edge="1" parent="WIyWlLk6GJQsqaUBKTNV-1" source="ap-6ULYue4MC9I8obSPz-61" target="ap-6ULYue4MC9I8obSPz-24">
          <mxGeometry relative="1" as="geometry">
            <mxPoint x="645" y="430" as="targetPoint" />
          </mxGeometry>
        </mxCell>
        <mxCell id="ap-6ULYue4MC9I8obSPz-67" style="edgeStyle=orthogonalEdgeStyle;rounded=0;orthogonalLoop=1;jettySize=auto;html=1;fontSize=10;entryX=0.5;entryY=1;entryDx=0;entryDy=0;" edge="1" parent="WIyWlLk6GJQsqaUBKTNV-1" source="ap-6ULYue4MC9I8obSPz-49" target="ap-6ULYue4MC9I8obSPz-63">
          <mxGeometry relative="1" as="geometry">
            <mxPoint x="710" y="530" as="targetPoint" />
            <Array as="points">
              <mxPoint x="705" y="630" />
            </Array>
          </mxGeometry>
        </mxCell>
        <mxCell id="ap-6ULYue4MC9I8obSPz-70" style="edgeStyle=orthogonalEdgeStyle;rounded=0;orthogonalLoop=1;jettySize=auto;html=1;entryX=1;entryY=0.5;entryDx=0;entryDy=0;fontSize=10;" edge="1" parent="WIyWlLk6GJQsqaUBKTNV-1" source="ap-6ULYue4MC9I8obSPz-49" target="ap-6ULYue4MC9I8obSPz-26">
          <mxGeometry relative="1" as="geometry" />
        </mxCell>
        <mxCell id="ap-6ULYue4MC9I8obSPz-71" style="edgeStyle=orthogonalEdgeStyle;rounded=0;orthogonalLoop=1;jettySize=auto;html=1;fontSize=10;" edge="1" parent="WIyWlLk6GJQsqaUBKTNV-1" source="ap-6ULYue4MC9I8obSPz-49">
          <mxGeometry relative="1" as="geometry">
            <mxPoint x="625" y="510" as="targetPoint" />
          </mxGeometry>
        </mxCell>
        <mxCell id="ap-6ULYue4MC9I8obSPz-73" style="edgeStyle=orthogonalEdgeStyle;rounded=0;orthogonalLoop=1;jettySize=auto;html=1;entryX=0.5;entryY=1;entryDx=0;entryDy=0;fontSize=10;" edge="1" parent="WIyWlLk6GJQsqaUBKTNV-1" source="ap-6ULYue4MC9I8obSPz-49" target="ap-6ULYue4MC9I8obSPz-59">
          <mxGeometry relative="1" as="geometry">
            <Array as="points">
              <mxPoint x="545" y="630" />
            </Array>
          </mxGeometry>
        </mxCell>
        <mxCell id="ap-6ULYue4MC9I8obSPz-49" value="Ingress" style="rounded=1;whiteSpace=wrap;html=1;fontSize=10;" vertex="1" parent="WIyWlLk6GJQsqaUBKTNV-1">
          <mxGeometry x="580" y="630" width="90" height="45" as="geometry" />
        </mxCell>
        <mxCell id="ap-6ULYue4MC9I8obSPz-69" style="edgeStyle=orthogonalEdgeStyle;rounded=0;orthogonalLoop=1;jettySize=auto;html=1;fontSize=10;entryX=0.5;entryY=0;entryDx=0;entryDy=0;" edge="1" parent="WIyWlLk6GJQsqaUBKTNV-1" source="ap-6ULYue4MC9I8obSPz-59" target="ap-6ULYue4MC9I8obSPz-49">
          <mxGeometry relative="1" as="geometry">
            <mxPoint x="545" y="580" as="targetPoint" />
            <Array as="points">
              <mxPoint x="545" y="630" />
            </Array>
          </mxGeometry>
        </mxCell>
        <mxCell id="ap-6ULYue4MC9I8obSPz-59" value="Pod1" style="rounded=1;whiteSpace=wrap;html=1;fontSize=10;" vertex="1" parent="WIyWlLk6GJQsqaUBKTNV-1">
          <mxGeometry x="510" y="470" width="70" height="40" as="geometry" />
        </mxCell>
        <mxCell id="ap-6ULYue4MC9I8obSPz-74" style="edgeStyle=orthogonalEdgeStyle;rounded=0;orthogonalLoop=1;jettySize=auto;html=1;fontSize=10;" edge="1" parent="WIyWlLk6GJQsqaUBKTNV-1" source="ap-6ULYue4MC9I8obSPz-61">
          <mxGeometry relative="1" as="geometry">
            <mxPoint x="625" y="630" as="targetPoint" />
          </mxGeometry>
        </mxCell>
        <mxCell id="ap-6ULYue4MC9I8obSPz-61" value="Pod1" style="rounded=1;whiteSpace=wrap;html=1;fontSize=10;" vertex="1" parent="WIyWlLk6GJQsqaUBKTNV-1">
          <mxGeometry x="590" y="470" width="70" height="40" as="geometry" />
        </mxCell>
        <mxCell id="ap-6ULYue4MC9I8obSPz-62" value="" style="edgeStyle=orthogonalEdgeStyle;rounded=0;orthogonalLoop=1;jettySize=auto;html=1;fontSize=10;entryX=0.5;entryY=1;entryDx=0;entryDy=0;endArrow=none;" edge="1" parent="WIyWlLk6GJQsqaUBKTNV-1" source="ap-6ULYue4MC9I8obSPz-49" target="ap-6ULYue4MC9I8obSPz-61">
          <mxGeometry relative="1" as="geometry">
            <mxPoint x="625" y="435" as="targetPoint" />
            <mxPoint x="625" y="600" as="sourcePoint" />
          </mxGeometry>
        </mxCell>
        <mxCell id="ap-6ULYue4MC9I8obSPz-72" style="edgeStyle=orthogonalEdgeStyle;rounded=0;orthogonalLoop=1;jettySize=auto;html=1;fontSize=10;entryX=0.5;entryY=0;entryDx=0;entryDy=0;" edge="1" parent="WIyWlLk6GJQsqaUBKTNV-1" source="ap-6ULYue4MC9I8obSPz-63" target="ap-6ULYue4MC9I8obSPz-49">
          <mxGeometry relative="1" as="geometry">
            <mxPoint x="670" y="630" as="targetPoint" />
            <Array as="points">
              <mxPoint x="705" y="630" />
            </Array>
          </mxGeometry>
        </mxCell>
        <mxCell id="ap-6ULYue4MC9I8obSPz-63" value="Pod1" style="rounded=1;whiteSpace=wrap;html=1;fontSize=10;" vertex="1" parent="WIyWlLk6GJQsqaUBKTNV-1">
          <mxGeometry x="670" y="470" width="70" height="40" as="geometry" />
        </mxCell>
        <mxCell id="ap-6ULYue4MC9I8obSPz-78" value="" style="endArrow=none;dashed=1;html=1;dashPattern=1 3;strokeWidth=2;rounded=0;fontFamily=Helvetica;fontSize=10;shape=connector;" edge="1" parent="WIyWlLk6GJQsqaUBKTNV-1">
          <mxGeometry width="50" height="50" relative="1" as="geometry">
            <mxPoint x="670" y="370" as="sourcePoint" />
            <mxPoint x="790" y="370" as="targetPoint" />
          </mxGeometry>
        </mxCell>
        <mxCell id="ap-6ULYue4MC9I8obSPz-93" style="edgeStyle=orthogonalEdgeStyle;rounded=0;orthogonalLoop=1;jettySize=auto;html=1;" edge="1" parent="WIyWlLk6GJQsqaUBKTNV-1" source="ap-6ULYue4MC9I8obSPz-82" target="ap-6ULYue4MC9I8obSPz-83">
          <mxGeometry relative="1" as="geometry" />
        </mxCell>
        <mxCell id="ap-6ULYue4MC9I8obSPz-99" value="" style="edgeStyle=orthogonalEdgeStyle;rounded=0;orthogonalLoop=1;jettySize=auto;html=1;fontSize=12;" edge="1" parent="WIyWlLk6GJQsqaUBKTNV-1" source="ap-6ULYue4MC9I8obSPz-82" target="ap-6ULYue4MC9I8obSPz-96">
          <mxGeometry relative="1" as="geometry" />
        </mxCell>
        <mxCell id="ap-6ULYue4MC9I8obSPz-82" value="&lt;div&gt;DNS cname:&amp;nbsp;&lt;/div&gt;&lt;div&gt;pw.dynamicwebcdn.com -&amp;gt;&lt;/div&gt;&lt;div&gt;pw.dynamicwebcdn.com.cdn.cloudflare.net&lt;/div&gt;" style="rounded=1;whiteSpace=wrap;html=1;fontSize=10;" vertex="1" parent="WIyWlLk6GJQsqaUBKTNV-1">
          <mxGeometry x="85" y="850" width="260" height="75" as="geometry" />
        </mxCell>
        <mxCell id="ap-6ULYue4MC9I8obSPz-95" style="edgeStyle=orthogonalEdgeStyle;rounded=0;orthogonalLoop=1;jettySize=auto;html=1;entryX=0.5;entryY=0;entryDx=0;entryDy=0;fontSize=12;" edge="1" parent="WIyWlLk6GJQsqaUBKTNV-1" source="ap-6ULYue4MC9I8obSPz-83" target="ap-6ULYue4MC9I8obSPz-94">
          <mxGeometry relative="1" as="geometry" />
        </mxCell>
        <mxCell id="ap-6ULYue4MC9I8obSPz-83" value="&lt;font style=&quot;font-size: 12px;&quot;&gt;&lt;b&gt;Cloudflare&lt;/b&gt;&lt;/font&gt;&lt;br&gt;&amp;nbsp;Cname:pw -&amp;gt; pw.dynamicweb.cloud" style="rounded=1;whiteSpace=wrap;html=1;fontSize=10;" vertex="1" parent="WIyWlLk6GJQsqaUBKTNV-1">
          <mxGeometry x="85" y="950" width="260" height="70" as="geometry" />
        </mxCell>
        <mxCell id="ap-6ULYue4MC9I8obSPz-94" value="Settings -&amp;gt; Web and http - CDN: Add:&lt;br&gt;pw.dynamicwebcdn.com" style="rounded=1;whiteSpace=wrap;html=1;fontSize=10;" vertex="1" parent="WIyWlLk6GJQsqaUBKTNV-1">
          <mxGeometry x="85" y="1050" width="260" height="75" as="geometry" />
        </mxCell>
        <mxCell id="ap-6ULYue4MC9I8obSPz-97" style="edgeStyle=orthogonalEdgeStyle;rounded=0;orthogonalLoop=1;jettySize=auto;html=1;entryX=0.5;entryY=1;entryDx=0;entryDy=0;fontSize=12;" edge="1" parent="WIyWlLk6GJQsqaUBKTNV-1" source="ap-6ULYue4MC9I8obSPz-96" target="ap-6ULYue4MC9I8obSPz-26">
          <mxGeometry relative="1" as="geometry" />
        </mxCell>
        <mxCell id="ap-6ULYue4MC9I8obSPz-100" style="edgeStyle=orthogonalEdgeStyle;rounded=0;orthogonalLoop=1;jettySize=auto;html=1;entryX=0.5;entryY=0;entryDx=0;entryDy=0;fontSize=12;" edge="1" parent="WIyWlLk6GJQsqaUBKTNV-1" source="ap-6ULYue4MC9I8obSPz-96" target="ap-6ULYue4MC9I8obSPz-82">
          <mxGeometry relative="1" as="geometry" />
        </mxCell>
        <mxCell id="ap-6ULYue4MC9I8obSPz-96" value="CDN Getimage.ashx:&lt;br&gt;pw.dynamicwebcdn.com" style="rounded=1;whiteSpace=wrap;html=1;fontSize=10;" vertex="1" parent="WIyWlLk6GJQsqaUBKTNV-1">
          <mxGeometry x="140" y="720" width="150" height="75" as="geometry" />
        </mxCell>
      </root>
    </mxGraphModel>
  </diagram>
</mxfile>
